<?xml version="1.0" encoding="UTF-8" standalone="no"?>
<!-- Created with Inkscape (http://www.inkscape.org/) -->

<svg
   xmlns:dc="http://purl.org/dc/elements/1.1/"
   xmlns:cc="http://creativecommons.org/ns#"
   xmlns:rdf="http://www.w3.org/1999/02/22-rdf-syntax-ns#"
   xmlns:svg="http://www.w3.org/2000/svg"
   xmlns="http://www.w3.org/2000/svg"
   xmlns:sodipodi="http://sodipodi.sourceforge.net/DTD/sodipodi-0.dtd"
   xmlns:inkscape="http://www.inkscape.org/namespaces/inkscape"
   version="1.1"
   id="svg2"
   width="333.2533"
   height="333.0871"
   viewBox="0 0 333.25329 333.08709"
   sodipodi:docname="sygnet.svg"
   inkscape:version="0.92.1 r15371">
  <metadata
     id="metadata8">
    <rdf:RDF>
      <cc:Work
         rdf:about="">
        <dc:format>image/svg+xml</dc:format>
        <dc:type
           rdf:resource="http://purl.org/dc/dcmitype/StillImage" />
        <dc:title></dc:title>
      </cc:Work>
    </rdf:RDF>
  </metadata>
  <defs
     id="defs6" />
  <sodipodi:namedview
     pagecolor="#ffffff"
     bordercolor="#666666"
     borderopacity="1"
     objecttolerance="10"
     gridtolerance="10"
     guidetolerance="10"
     inkscape:pageopacity="0"
     inkscape:pageshadow="2"
     inkscape:window-width="1366"
     inkscape:window-height="709"
     id="namedview4"
     showgrid="false"
     inkscape:zoom="0.70799998"
     inkscape:cx="-84.905861"
     inkscape:cy="158.02589"
     inkscape:window-x="0"
     inkscape:window-y="0"
     inkscape:window-maximized="1"
     inkscape:current-layer="svg2" />
  <g
     id="g30"
     transform="translate(-0.08005454,-0.08005454)">
    <path
       style="fill:#fdfd05;stroke-width:1"
       d="M 136.79611,331.19117 C 68.769813,318.90657 13.959523,263.70053 2.0639354,195.48618 c -2.64517448,-15.16855 -2.64517448,-42.47047 0,-57.63902 C 11.011802,86.536295 44.550397,41.312173 91.071983,17.826902 105.83973,10.371769 122.60515,4.7219197 137.84716,2.0639354 c 15.16855,-2.64517448 42.47047,-2.64517448 57.63902,0 51.31086,8.9478666 96.53499,42.4864616 120.02025,89.0080476 12.37922,24.521777 17.82691,47.622607 17.82691,75.594687 0,27.97208 -5.44769,51.07291 -17.82691,75.59468 -23.48526,46.52159 -68.70939,80.06019 -120.02025,89.00806 -14.6959,2.56274 -44.28395,2.5233 -58.69007,-0.0783 z m -35.53444,-59.84676 c 2.70391,-2.70392 3.405,-4.72087 3.405,-9.79578 0,-5.85825 2.10039,-10.04986 25.20659,-50.30304 13.86362,-24.15173 25.9422,-44.7194 26.84128,-45.70591 1.32326,-1.45196 4.75166,3.88211 17.99658,28 8.99906,16.38651 16.8897,30.47828 17.53476,31.31506 0.8249,1.07004 2.31646,0.3778 5.02759,-2.33334 5.34201,-5.342 12.13409,-5.31896 17.51247,0.0593 l 3.91414,3.91414 2.84104,-5.58081 c 27.50491,-54.02923 59.13565,-113.95983 60.83922,-115.27174 1.87212,-1.44172 1.59096,-1.56999 -1.90763,-0.87027 -8.67505,1.73508 -16.23284,-5.915706 -14.59257,-14.772058 0.61323,-3.310978 0.49224,-3.57761 -0.70237,-1.547882 -0.79378,1.348666 -1.15602,3.954511 -0.805,5.790769 0.47454,2.48241 -6.28379,16.728391 -26.3521,55.547891 -14.84468,28.71506 -28.18196,54.5504 -29.6384,57.41184 l -2.64807,5.20261 -16.40361,-29.86928 c -9.02199,-16.42811 -16.9314,-30.55391 -17.57647,-31.39068 -0.82489,-1.07004 -2.31645,-0.3778 -5.02758,2.33333 -5.40178,5.40176 -12.12944,5.32363 -17.65816,-0.20509 -2.23291,-2.23291 -4.19142,-3.88291 -4.35223,-3.66667 C 144.55532,149.82308 132.53306,170.7 118,196 103.46694,221.3 91.381792,242.23982 91.144114,242.53291 90.906434,242.826 83.651776,228.726 75.022652,211.19958 l -15.689317,-31.86624 -3.718702,3.80174 c -3.049116,3.11722 -4.609624,3.71002 -8.666667,3.29224 l -4.947965,-0.50952 17.235996,34.04111 c 12.724034,25.12996 17.497378,35.90471 18.234491,41.16022 1.48478,10.58628 6.834616,15.40826 15.791179,14.23314 2.52725,-0.33157 6.12725,-2.13512 8.000003,-4.00786 z m 107.09704,-26.88566 c -0.90271,-0.36523 -2.70271,-0.38745 -4,-0.0495 -1.29729,0.33806 -0.55871,0.63688 1.64129,0.66406 2.2,0.0272 3.26142,-0.24942 2.35871,-0.61466 z m -9.69204,-2.29549 c 0,-0.27687 -1.05,-1.32687 -2.33333,-2.33334 -2.11475,-1.65849 -2.16191,-1.61133 -0.50342,0.50342 1.74183,2.221 2.83675,2.9273 2.83675,1.82992 z m 17.50341,-1.82992 c 1.6585,-2.11475 1.61134,-2.16191 -0.50341,-0.50342 -1.28333,1.00647 -2.33333,2.05647 -2.33333,2.33334 0,1.09738 1.09492,0.39108 2.83674,-1.82992 z m -23.24609,-10.6413 c -0.33805,-1.29729 -0.63688,-0.5587 -0.66405,1.6413 -0.0272,2.2 0.24941,3.26141 0.61465,2.3587 0.36523,-0.9027 0.38745,-2.7027 0.0495,-4 z m 26.66667,0 c -0.33806,-1.29729 -0.63688,-0.5587 -0.66406,1.6413 -0.0272,2.2 0.24942,3.26141 0.61466,2.3587 0.36522,-0.9027 0.38745,-2.7027 0.0495,-4 z M 40.000001,184.82992 c 0,-0.27686 -1.05,-1.32686 -2.333334,-2.33333 -2.114741,-1.65849 -2.161901,-1.61133 -0.503406,0.50341 1.741825,2.221 2.83674,2.92731 2.83674,1.82992 z M 34.257322,172.35871 C 33.919263,171.06142 33.620438,171.8 33.593266,174 c -0.02717,2.2 0.24942,3.26142 0.614651,2.35871 0.36523,-0.90271 0.387462,-2.70271 0.0494,-4 z m 26.666667,0 C 60.585931,171.06142 60.287105,171.8 60.259933,174 c -0.02717,2.2 0.24942,3.26142 0.614651,2.35871 0.365231,-0.90271 0.387463,-2.70271 0.0494,-4 z m -22.087248,-8.02537 c 1.658494,-2.11475 1.611334,-2.16191 -0.503407,-0.50342 -2.220997,1.74183 -2.927305,2.83675 -1.829927,2.83675 0.276875,0 1.326875,-1.05 2.333334,-2.33333 z m 19.829927,1.82992 c 0,-0.27687 -1.05,-1.32687 -2.333334,-2.33334 -2.114741,-1.65849 -2.161901,-1.61133 -0.503406,0.50342 1.741825,2.221 2.83674,2.9273 2.83674,1.82992 z m -8.974624,-5.70451 c -0.902711,-0.36523 -2.702711,-0.38745 -4,-0.0493 -1.297291,0.33805 -0.55871,0.63688 1.64129,0.66405 2.2,0.0272 3.261419,-0.24941 2.35871,-0.61465 z m 95.231946,-17.43337 c -0.33805,-1.2973 -0.63688,-0.55871 -0.66405,1.64129 -0.0272,2.2 0.24941,3.26141 0.61465,2.35871 0.36523,-0.90271 0.38745,-2.70271 0.0493,-4 z m 26.66667,0 c -0.33806,-1.2973 -0.63688,-0.55871 -0.66406,1.64129 -0.0272,2.2 0.24942,3.26141 0.61466,2.35871 0.36522,-0.90271 0.38745,-2.70271 0.0495,-4 z M 149.50342,135 c 1.65849,-2.11474 1.61133,-2.1619 -0.50342,-0.50341 -1.28333,1.00647 -2.33333,2.05647 -2.33333,2.33333 0,1.09739 1.09492,0.39108 2.83675,-1.82992 z m 19.82992,1.82992 c 0,-0.27686 -1.05,-1.32686 -2.33334,-2.33333 -2.11474,-1.65849 -2.1619,-1.61133 -0.50341,0.50341 1.74183,2.221 2.83675,2.92731 2.83675,1.82992 z m -8.97463,-5.7045 c -0.90271,-0.36523 -2.70271,-0.38746 -4,-0.0494 -1.29729,0.33806 -0.55871,0.63688 1.64129,0.66406 2.2,0.0272 3.26142,-0.24942 2.35871,-0.61465 z m 127.81138,-29.45875 c 1.65849,-2.114743 1.61133,-2.161903 -0.50342,-0.50341 -2.221,1.74183 -2.9273,2.83674 -1.82992,2.83674 0.27687,0 1.32687,-1.05 2.33334,-2.33333 z m 3.78908,-9.000001 c 0,-1.466667 -0.4408,-3.359373 -0.97958,-4.206011 -0.53877,-0.84664 -0.97958,1.046065 -0.97958,4.206011 0,3.159945 0.44081,5.05265 0.97958,4.20601 0.53878,-0.846638 0.97958,-2.739344 0.97958,-4.20601 z m -22.45575,-9.666667 c 1.65849,-2.114742 1.61133,-2.161902 -0.50341,-0.503407 -2.221,1.741825 -2.92731,2.83674 -1.82992,2.83674 0.27686,0 1.32686,-1.05 2.33333,-2.333333 z m 19.82992,1.829926 c 0,-0.276874 -1.05,-1.326874 -2.33333,-2.333333 -2.11475,-1.658495 -2.16191,-1.611335 -0.50342,0.503407 1.74183,2.220997 2.83675,2.927305 2.83675,1.829926 z m -7.12732,-5.142842 c -0.84664,-0.538771 -2.73935,-0.979583 -4.20601,-0.979583 -1.46667,0 -3.35938,0.440812 -4.20602,0.979583 -0.84664,0.53877 1.04607,0.979582 4.20602,0.979582 3.15994,0 5.05265,-0.440812 4.20601,-0.979582 z"
       id="path44"
       inkscape:connector-curvature="0" />
    <path
       style="fill:#a9a9a9;stroke-width:1"
       d="M 136.79611,331.19117 C 68.769813,318.90657 13.959523,263.70053 2.0639354,195.48618 c -2.64517448,-15.16855 -2.64517448,-42.47047 0,-57.63902 C 11.011802,86.536295 44.550397,41.312173 91.071983,17.826902 105.83973,10.371769 122.60515,4.7219197 137.84716,2.0639354 c 15.16855,-2.64517448 42.47047,-2.64517448 57.63902,0 51.31086,8.9478666 96.53499,42.4864616 120.02025,89.0080476 12.37922,24.521777 17.82691,47.622607 17.82691,75.594687 0,27.97208 -5.44769,51.07291 -17.82691,75.59468 -23.48526,46.52159 -68.70939,80.06019 -120.02025,89.00806 -14.6959,2.56274 -44.28395,2.5233 -58.69007,-0.0783 z m -35.53444,-59.84676 c 2.70391,-2.70392 3.405,-4.72087 3.405,-9.79578 0,-5.85825 2.10039,-10.04986 25.20659,-50.30304 13.86362,-24.15173 25.9422,-44.7194 26.84128,-45.70591 1.32326,-1.45196 4.75166,3.88211 17.99658,28 8.99906,16.38651 16.8897,30.47828 17.53476,31.31506 0.8249,1.07004 2.31646,0.3778 5.02759,-2.33334 5.31773,-5.31772 12.13588,-5.31718 17.45445,0.001 l 3.85614,3.85612 9.83368,-18.85612 c 5.40852,-10.37088 19.3771,-37.36123 31.04131,-59.97858 16.80885,-32.59305 21.97858,-41.52437 24.9246,-43.06025 4.75296,-2.47792 8.27552,-9.676132 7.07533,-14.458108 -1.15397,-4.597778 -6.2204,-9.664199 -10.81817,-10.818167 -7.83478,-1.966403 -17.75776,7.242171 -16.25803,15.087515 0.4614,2.413657 -6.53892,17.1502 -26.36211,55.49556 -14.84468,28.71507 -28.18196,54.5504 -29.6384,57.41184 l -2.64807,5.20261 -16.40361,-29.86928 c -9.02199,-16.4281 -16.9314,-30.5539 -17.57647,-31.39068 -0.82489,-1.07004 -2.31645,-0.3778 -5.02758,2.33334 -5.40178,5.40176 -12.12944,5.32362 -17.65816,-0.2051 -2.23291,-2.2329 -4.19142,-3.8829 -4.35223,-3.66666 C 144.55532,149.82308 132.53306,170.7 118,196 103.46694,221.3 91.381792,242.23982 91.144114,242.53291 90.906434,242.826 83.651776,228.726 75.022652,211.19958 l -15.689317,-31.86624 -3.718702,3.80174 c -3.049116,3.11722 -4.609624,3.71002 -8.666667,3.29224 l -4.947965,-0.50952 17.235996,34.04111 c 12.724034,25.12996 17.497378,35.90471 18.234491,41.16022 1.48478,10.58628 6.834616,15.40826 15.791179,14.23314 2.52725,-0.33157 6.12725,-2.13512 8.000003,-4.00786 z m 107.09704,-26.88566 c -0.90271,-0.36523 -2.70271,-0.38745 -4,-0.0495 -1.29729,0.33806 -0.55871,0.63688 1.64129,0.66406 2.2,0.0272 3.26142,-0.24942 2.35871,-0.61466 z m -9.69204,-2.29549 c 0,-0.27687 -1.05,-1.32687 -2.33333,-2.33334 -2.11475,-1.65849 -2.16191,-1.61133 -0.50342,0.50342 1.74183,2.221 2.83675,2.9273 2.83675,1.82992 z m 17.50341,-1.82992 c 1.6585,-2.11475 1.61134,-2.16191 -0.50341,-0.50342 -1.28333,1.00647 -2.33333,2.05647 -2.33333,2.33334 0,1.09738 1.09492,0.39108 2.83674,-1.82992 z m -23.24609,-10.6413 c -0.33805,-1.29729 -0.63688,-0.5587 -0.66405,1.6413 -0.0272,2.2 0.24941,3.26141 0.61465,2.3587 0.36523,-0.9027 0.38745,-2.7027 0.0495,-4 z m 26.66667,0 c -0.33806,-1.29729 -0.63688,-0.5587 -0.66406,1.6413 -0.0272,2.2 0.24942,3.26141 0.61466,2.3587 0.36522,-0.9027 0.38745,-2.7027 0.0495,-4 z M 40.000001,184.82992 c 0,-0.27686 -1.05,-1.32686 -2.333334,-2.33333 -2.114741,-1.65849 -2.161901,-1.61133 -0.503406,0.50341 1.741825,2.221 2.83674,2.92731 2.83674,1.82992 z M 34.257322,172.35871 C 33.919263,171.06142 33.620438,171.8 33.593266,174 c -0.02717,2.2 0.24942,3.26142 0.614651,2.35871 0.36523,-0.90271 0.387462,-2.70271 0.0494,-4 z m 26.666667,0 C 60.585931,171.06142 60.287105,171.8 60.259933,174 c -0.02717,2.2 0.24942,3.26142 0.614651,2.35871 0.365231,-0.90271 0.387463,-2.70271 0.0494,-4 z m -22.087248,-8.02537 c 1.658494,-2.11475 1.611334,-2.16191 -0.503407,-0.50342 -2.220997,1.74183 -2.927305,2.83675 -1.829927,2.83675 0.276875,0 1.326875,-1.05 2.333334,-2.33333 z m 19.829927,1.82992 c 0,-0.27687 -1.05,-1.32687 -2.333334,-2.33334 -2.114741,-1.65849 -2.161901,-1.61133 -0.503406,0.50342 1.741825,2.221 2.83674,2.9273 2.83674,1.82992 z m -8.974624,-5.70451 c -0.902711,-0.36523 -2.702711,-0.38745 -4,-0.0493 -1.297291,0.33805 -0.55871,0.63688 1.64129,0.66405 2.2,0.0272 3.261419,-0.24941 2.35871,-0.61465 z m 95.231946,-17.43337 c -0.33805,-1.2973 -0.63688,-0.55871 -0.66405,1.64129 -0.0272,2.2 0.24941,3.26141 0.61465,2.35871 0.36523,-0.90271 0.38745,-2.70271 0.0493,-4 z m 26.66667,0 c -0.33806,-1.2973 -0.63688,-0.55871 -0.66406,1.64129 -0.0272,2.2 0.24942,3.26141 0.61466,2.35871 0.36522,-0.90271 0.38745,-2.70271 0.0495,-4 z M 149.50342,135 c 1.65849,-2.11474 1.61133,-2.1619 -0.50342,-0.50341 -1.28333,1.00647 -2.33333,2.05647 -2.33333,2.33333 0,1.09739 1.09492,0.39108 2.83675,-1.82992 z m 19.82992,1.82992 c 0,-0.27686 -1.05,-1.32686 -2.33334,-2.33333 -2.11474,-1.65849 -2.1619,-1.61133 -0.50341,0.50341 1.74183,2.221 2.83675,2.92731 2.83675,1.82992 z m -8.97463,-5.7045 c -0.90271,-0.36523 -2.70271,-0.38746 -4,-0.0494 -1.29729,0.33806 -0.55871,0.63688 1.64129,0.66406 2.2,0.0272 3.26142,-0.24942 2.35871,-0.61465 z"
       id="path42"
       inkscape:connector-curvature="0" />
    <path
       style="fill:#2aaae1;stroke-width:1"
       d="M 143.33334,331.93159 C 104.6849,325.90195 73.465157,309.67317 46.29548,281.48894 24.104163,258.46897 10.161861,232.062 3.1275382,199.7281 c -3.36173792,-15.45254 -3.36173792,-50.67032 0,-66.12286 C 10.532035,99.569802 24.648504,73.675112 49.161809,49.161809 73.675112,24.648504 99.569802,10.532035 133.60524,3.1275382 c 15.45254,-3.36173792 50.67032,-3.36173792 66.12286,0 34.03544,7.4044968 59.93013,21.5209658 84.44343,46.0342708 24.5133,24.513303 38.62977,50.407993 46.03428,84.443431 3.36173,15.45254 3.36173,50.67032 0,66.12286 -7.40451,34.03544 -21.52098,59.93013 -46.03428,84.44343 -24.44562,24.44562 -50.45865,38.64224 -84.17153,45.93662 -11.80061,2.55328 -45.11692,3.62535 -56.66666,1.82344 z M 100.86498,271.4017 c 3.97309,-3.97309 4.5583,-5.37808 4.30408,-10.33333 -0.26923,-5.24786 1.94784,-9.61924 26.09922,-51.45973 14.5164,-25.14857 26.55362,-45.54857 26.74938,-45.33333 0.19577,0.21525 7.92188,13.99515 17.16914,30.62199 14.02038,25.20904 16.8132,31.15576 16.8132,35.8 0,7.64016 6.69187,14.63604 14,14.63604 3.83268,0 5.94475,-1.01142 9.46667,-4.53334 3.76695,-3.76694 4.53333,-5.5145 4.53333,-10.33714 0,-4.95444 4.42528,-14.38908 30.23782,-64.46667 16.6308,-32.26457 30.8808,-58.90928 31.66667,-59.21047 0.78586,-0.30119 3.37885,-2.49119 5.76218,-4.86667 6.09868,-6.078569 6.03019,-12.488864 -0.2,-18.719048 -6.30724,-6.307234 -12.62609,-6.307234 -18.93333,0 -3.71608,3.716074 -4.53333,5.542658 -4.53333,10.132057 0,4.686151 -4.7134,14.707631 -28.91722,61.482781 -15.90447,30.73624 -29.3692,55.42682 -29.92161,54.86795 -0.55242,-0.55887 -8.23967,-14.02313 -17.08279,-29.9206 C 174.71811,155.74411 172,149.91739 172,145.29552 c 0,-7.63269 -6.69541,-14.62885 -14,-14.62885 -7.15449,0 -14,7.00715 -14,14.33056 0,4.41116 -4.22756,12.58427 -26.09637,50.45193 -14.35301,24.85342 -26.317995,45.40966 -26.588856,45.68051 -0.270862,0.27087 -7.328772,-13.22251 -15.684244,-29.98525 -13.659129,-27.40296 -15.132574,-31.04882 -14.605019,-36.13828 0.524713,-5.06207 0.09271,-6.15459 -4.086047,-10.33334 -6.453632,-6.45364 -12.712858,-6.4994 -19.072797,-0.13946 -6.669684,6.66968 -6.385712,12.7841 0.916338,19.73037 7.308159,6.95209 38.55033,69.88562 38.55033,77.65492 0,3.92523 0.984901,5.99962 4.533333,9.54804 6.331956,6.33196 12.622893,6.31044 18.998312,-0.0649 z m 99.28178,-29.26238 c -1.75261,-0.9714 -3.98134,-3.20013 -4.95274,-4.95274 -6.79892,-12.26671 9.54152,-24.45104 19.47265,-14.51991 5.76093,5.76093 4.32997,15.71523 -2.78825,19.39621 -4.57818,2.36746 -7.56308,2.38691 -11.73166,0.0764 z M 41.480095,184.80599 c -1.752613,-0.9714 -3.981353,-3.20013 -4.952752,-4.95275 -6.79891,-12.2667 9.541522,-24.45104 19.472658,-14.5199 5.760936,5.76093 4.329979,15.71522 -2.788259,19.39621 -4.578164,2.36745 -7.56307,2.38691 -11.731647,0.0764 z M 152.14676,155.47266 c -1.75261,-0.9714 -3.98134,-3.20014 -4.95274,-4.95275 -6.79892,-12.26671 9.54152,-24.45104 19.47265,-14.51991 5.76093,5.76094 4.32997,15.71523 -2.78825,19.39622 -4.57818,2.36745 -7.56308,2.3869 -11.73166,0.0764 z"
       id="path40"
       inkscape:connector-curvature="0" />
    <path
       style="fill:#ec1d25;stroke-width:1"
       d="M 143.33334,331.93159 C 104.6849,325.90195 73.465157,309.67317 46.29548,281.48894 24.104163,258.46897 10.161861,232.062 3.1275382,199.7281 c -3.36173792,-15.45254 -3.36173792,-50.67032 0,-66.12286 C 10.532035,99.569802 24.648504,73.675112 49.161809,49.161809 73.675112,24.648504 99.569802,10.532035 133.60524,3.1275382 c 15.45254,-3.36173792 50.67032,-3.36173792 66.12286,0 34.03544,7.4044968 59.93013,21.5209658 84.44343,46.0342708 24.5133,24.513303 38.62977,50.407993 46.03428,84.443431 3.36173,15.45254 3.36173,50.67032 0,66.12286 -7.40451,34.03544 -21.52098,59.93013 -46.03428,84.44343 -24.44562,24.44562 -50.45865,38.64224 -84.17153,45.93662 -11.80061,2.55328 -45.11692,3.62535 -56.66666,1.82344 z M 100.86498,271.4017 c 3.97309,-3.97309 4.5583,-5.37808 4.30408,-10.33333 -0.26923,-5.24786 1.94784,-9.61924 26.09922,-51.45973 14.5164,-25.14857 26.55362,-45.54857 26.74938,-45.33333 0.19577,0.21525 7.92188,13.99515 17.16914,30.62199 14.02038,25.20904 16.8132,31.15576 16.8132,35.8 0,7.64016 6.69187,14.63604 14,14.63604 3.83268,0 5.94475,-1.01142 9.46667,-4.53334 3.76695,-3.76694 4.53333,-5.5145 4.53333,-10.33714 0,-4.95444 4.42528,-14.38908 30.23782,-64.46667 16.6308,-32.26457 30.8808,-58.90928 31.66667,-59.21047 0.78586,-0.30119 3.37885,-2.49119 5.76218,-4.86667 6.09868,-6.078569 6.03019,-12.488864 -0.2,-18.719048 -6.30724,-6.307234 -12.62609,-6.307234 -18.93333,0 -3.71608,3.716074 -4.53333,5.542658 -4.53333,10.132057 0,4.686151 -4.7134,14.707631 -28.91722,61.482781 -15.90447,30.73624 -29.3692,55.42682 -29.92161,54.86795 -0.55242,-0.55887 -8.23967,-14.02313 -17.08279,-29.9206 C 174.71811,155.74411 172,149.91739 172,145.29552 c 0,-7.63269 -6.69541,-14.62885 -14,-14.62885 -7.15449,0 -14,7.00715 -14,14.33056 0,4.41116 -4.22756,12.58427 -26.09637,50.45193 -14.35301,24.85342 -26.317995,45.40966 -26.588856,45.68051 -0.270862,0.27087 -7.328772,-13.22251 -15.684244,-29.98525 -13.659129,-27.40296 -15.132574,-31.04882 -14.605019,-36.13828 0.524713,-5.06207 0.09271,-6.15459 -4.086047,-10.33334 -6.453632,-6.45364 -12.712858,-6.4994 -19.072797,-0.13946 -6.669684,6.66968 -6.385712,12.7841 0.916338,19.73037 7.308159,6.95209 38.55033,69.88562 38.55033,77.65492 0,3.92523 0.984901,5.99962 4.533333,9.54804 6.331956,6.33196 12.622893,6.31044 18.998312,-0.0649 z m 99.28178,-29.26238 c -1.75261,-0.9714 -3.98134,-3.20013 -4.95274,-4.95274 -6.79892,-12.26671 9.54152,-24.45104 19.47265,-14.51991 5.76093,5.76093 4.32997,15.71523 -2.78825,19.39621 -4.57818,2.36746 -7.56308,2.38691 -11.73166,0.0764 z M 41.480095,184.80599 c -1.752613,-0.9714 -3.981353,-3.20013 -4.952752,-4.95275 -6.79891,-12.2667 9.541522,-24.45104 19.472658,-14.5199 5.760936,5.76093 4.329979,15.71522 -2.788259,19.39621 -4.578164,2.36745 -7.56307,2.38691 -11.731647,0.0764 z"
       id="path38"
       inkscape:connector-curvature="0" />
    <path
       style="fill:#656564;stroke-width:1"
       d="M 143.33334,331.93159 C 104.6849,325.90195 73.465157,309.67317 46.29548,281.48894 24.104163,258.46897 10.161861,232.062 3.1275382,199.7281 c -3.36173792,-15.45254 -3.36173792,-50.67032 0,-66.12286 C 10.532035,99.569802 24.648504,73.675112 49.161809,49.161809 73.675112,24.648504 99.569802,10.532035 133.60524,3.1275382 c 15.45254,-3.36173792 50.67032,-3.36173792 66.12286,0 34.03544,7.4044968 59.93013,21.5209658 84.44343,46.0342708 24.5133,24.513303 38.62977,50.407993 46.03428,84.443431 3.36173,15.45254 3.36173,50.67032 0,66.12286 -7.40451,34.03544 -21.52098,59.93013 -46.03428,84.44343 -24.44562,24.44562 -50.45865,38.64224 -84.17153,45.93662 -11.80061,2.55328 -45.11692,3.62535 -56.66666,1.82344 z M 100.86498,271.4017 c 3.97309,-3.97309 4.5583,-5.37808 4.30408,-10.33333 -0.26923,-5.24786 1.94784,-9.61924 26.09922,-51.45973 14.5164,-25.14857 26.55362,-45.54857 26.74938,-45.33333 0.19577,0.21525 7.92188,13.99515 17.16914,30.62199 14.02038,25.20904 16.8132,31.15576 16.8132,35.8 0,7.64016 6.69187,14.63604 14,14.63604 3.83268,0 5.94475,-1.01142 9.46667,-4.53334 3.76695,-3.76694 4.53333,-5.5145 4.53333,-10.33714 0,-4.95444 4.42528,-14.38908 30.23782,-64.46667 16.6308,-32.26457 30.8808,-58.90928 31.66667,-59.21047 0.78586,-0.30119 3.37885,-2.49119 5.76218,-4.86667 6.09868,-6.078569 6.03019,-12.488864 -0.2,-18.719048 -6.30724,-6.307234 -12.62609,-6.307234 -18.93333,0 -3.71608,3.716074 -4.53333,5.542658 -4.53333,10.132057 0,4.686151 -4.7134,14.707631 -28.91722,61.482781 -15.90447,30.73624 -29.3692,55.42682 -29.92161,54.86795 -0.55242,-0.55887 -8.23967,-14.02313 -17.08279,-29.9206 C 174.71811,155.74411 172,149.91739 172,145.29552 c 0,-7.63269 -6.69541,-14.62885 -14,-14.62885 -7.15449,0 -14,7.00715 -14,14.33056 0,4.41116 -4.22756,12.58427 -26.09637,50.45193 -14.35301,24.85342 -26.317995,45.40966 -26.588856,45.68051 -0.270862,0.27087 -7.328772,-13.22251 -15.684244,-29.98525 -13.659129,-27.40296 -15.132574,-31.04882 -14.605019,-36.13828 0.524713,-5.06207 0.09271,-6.15459 -4.086047,-10.33334 -6.453632,-6.45364 -12.712858,-6.4994 -19.072797,-0.13946 -6.669684,6.66968 -6.385712,12.7841 0.916338,19.73037 7.308159,6.95209 38.55033,69.88562 38.55033,77.65492 0,3.92523 0.984901,5.99962 4.533333,9.54804 6.331956,6.33196 12.622893,6.31044 18.998312,-0.0649 z M 41.480095,184.80599 c -1.752613,-0.9714 -3.981353,-3.20013 -4.952752,-4.95275 -6.79891,-12.2667 9.541522,-24.45104 19.472658,-14.5199 5.760936,5.76093 4.329979,15.71522 -2.788259,19.39621 -4.578164,2.36745 -7.56307,2.38691 -11.731647,0.0764 z"
       id="path36"
       inkscape:connector-curvature="0" />
    <path
       style="fill:#06fd06;stroke-width:1"
       d="M 141.33334,331.13262 C 72.373265,320.57597 16.816262,266.94177 3.1169725,197.69984 c -3.13425421,-15.84182 -3.13425421,-46.22452 0,-62.06634 C 16.423926,68.374605 68.374605,16.423926 135.6335,3.1169725 c 15.84182,-3.13425421 46.22452,-3.13425421 62.06634,0 69.94963,13.8393075 123.25411,69.6058795 133.55214,139.7208175 2.62796,17.89265 2.62796,29.76511 0,47.65776 -13.41548,91.34034 -98.81928,154.58288 -189.91864,140.63707 z m -40.10257,-59.23517 c 3.38991,-3.38992 4.10257,-5.16608 4.10257,-10.2249 0,-5.51072 2.47045,-10.41194 24.72954,-49.06193 13.60126,-23.61678 25.49954,-43.99262 26.44063,-45.27963 1.50564,-2.05909 3.73935,1.34012 18.60379,28.311 13.83398,25.10115 16.8927,31.632 16.8927,36.06864 0,7.83532 5.94767,13.62271 14,13.62271 4.69316,0 6.57484,-0.77998 9.89744,-4.10256 3.34154,-3.34154 4.10256,-5.19395 4.10256,-9.98599 0,-5.06161 4.21054,-14.03345 30.14382,-64.23077 16.64293,-32.21459 31.42188,-59.24312 32.99739,-60.34735 6.52368,-4.57231 8.8588,-8.286895 8.8588,-14.092135 0,-4.59028 -0.80031,-6.503044 -4.10256,-9.805303 -8.94836,-8.948355 -23.86191,-2.922821 -23.92558,9.666667 -0.0233,4.610111 -5.02225,15.236911 -29.15604,61.980211 l -29.12789,56.41611 -16.84396,-30.56263 C 175.05246,155.24551 172,148.72519 172,144.28938 c 0,-4.27186 -0.86762,-6.2852 -4.10256,-9.52015 C 159.06688,125.93868 144,131.85278 144,144.14954 c 0,4.42982 -4.25777,12.6603 -26.50217,51.22997 L 90.995654,241.33174 76.164494,211.19198 C 63.501573,185.4585 61.333335,180.11312 61.333335,174.62867 c 0,-5.39517 -0.656792,-7.08033 -4.102565,-10.52611 C 53.908177,160.77998 52.026497,160 47.333334,160 c -4.693162,0 -6.574843,0.77998 -9.897436,4.10256 -3.334013,3.33402 -4.102564,5.1981 -4.102564,9.95051 0,5.04431 0.714112,6.54184 5.196539,10.89743 7.365321,7.15692 38.803462,70.03031 38.803462,77.60336 0,7.64952 6.035392,13.44615 14,13.44615 4.693163,0 6.574843,-0.77998 9.897435,-4.10256 z M 41.480095,184.80599 c -1.752613,-0.9714 -3.981353,-3.20013 -4.952752,-4.95275 -6.79891,-12.2667 9.541522,-24.45104 19.472658,-14.5199 5.760936,5.76093 4.329979,15.71522 -2.788259,19.39621 -4.578164,2.36745 -7.56307,2.38691 -11.731647,0.0764 z"
       id="path34"
       inkscape:connector-curvature="0" />
    <path
       style="fill:#000000;stroke-width:1"
       d="M 141.33334,331.13262 C 72.373265,320.57597 16.816262,266.94177 3.1169725,197.69984 c -3.13425421,-15.84182 -3.13425421,-46.22452 0,-62.06634 C 16.423926,68.374605 68.374605,16.423926 135.6335,3.1169725 c 15.84182,-3.13425421 46.22452,-3.13425421 62.06634,0 69.94963,13.8393075 123.25411,69.6058795 133.55214,139.7208175 2.62796,17.89265 2.62796,29.76511 0,47.65776 -13.41548,91.34034 -98.81928,154.58288 -189.91864,140.63707 z m -40.10257,-59.23517 c 3.38991,-3.38992 4.10257,-5.16608 4.10257,-10.2249 0,-5.51072 2.47045,-10.41194 24.72954,-49.06193 13.60126,-23.61678 25.49954,-43.99262 26.44063,-45.27963 1.50564,-2.05909 3.73935,1.34012 18.60379,28.311 13.83398,25.10115 16.8927,31.632 16.8927,36.06864 0,7.83532 5.94767,13.62271 14,13.62271 4.69316,0 6.57484,-0.77998 9.89744,-4.10256 3.34154,-3.34154 4.10256,-5.19395 4.10256,-9.98599 0,-5.06161 4.21054,-14.03345 30.14382,-64.23077 16.64293,-32.21459 31.42188,-59.24312 32.99739,-60.34735 6.52368,-4.57231 8.8588,-8.286895 8.8588,-14.092135 0,-4.59028 -0.80031,-6.503044 -4.10256,-9.805303 -8.94836,-8.948355 -23.86191,-2.922821 -23.92558,9.666667 -0.0233,4.610111 -5.02225,15.236911 -29.15604,61.980211 l -29.12789,56.41611 -16.84396,-30.56263 C 175.05246,155.24551 172,148.72519 172,144.28938 c 0,-4.27186 -0.86762,-6.2852 -4.10256,-9.52015 C 159.06688,125.93868 144,131.85278 144,144.14954 c 0,4.42982 -4.25777,12.6603 -26.50217,51.22997 L 90.995654,241.33174 76.164494,211.19198 C 63.501573,185.4585 61.333335,180.11312 61.333335,174.62867 c 0,-5.39517 -0.656792,-7.08033 -4.102565,-10.52611 C 53.908177,160.77998 52.026497,160 47.333334,160 c -4.693162,0 -6.574843,0.77998 -9.897436,4.10256 -3.334013,3.33402 -4.102564,5.1981 -4.102564,9.95051 0,5.04431 0.714112,6.54184 5.196539,10.89743 7.365321,7.15692 38.803462,70.03031 38.803462,77.60336 0,7.64952 6.035392,13.44615 14,13.44615 4.693163,0 6.574843,-0.77998 9.897435,-4.10256 z"
       id="path32"
       inkscape:connector-curvature="0" />
  </g>
</svg>
